{"City": "Mumbai", "city_s": "Mumbai", "zip": "400097", "Area": "Malad", "url": "https://www.flipkart.com/search?q=24 Mantra&marketplace=GROCERY###zipcode:400097", "source": "FlipkartSupermart-IN", "area_s": "Malad", "pincode_s": "400097"}
{"City": "Mumbai", "city_s": "Mumbai", "zip": "400097", "Area": "Malad", "url": "https://www.flipkart.com/search?q=24 Mantra Organic&marketplace=GROCERY###zipcode:400097", "source": "FlipkartSupermart-IN", "area_s": "Malad", "pincode_s": "400097"}
{"City": "Mumbai", "city_s": "Mumbai", "zip": "400097", "Area": "Malad", "url": "https://www.flipkart.com/search?q=Aashirvaad&marketplace=GROCERY###zipcode:400097", "source": "FlipkartSupermart-IN", "area_s": "Malad", "pincode_s": "400097"}
{"City": "Mumbai", "city_s": "Mumbai", "zip": "400097", "Area": "Malad", "url": "https://www.flipkart.com/search?q=Annapoorna&marketplace=GROCERY###zipcode:400097", "source": "FlipkartSupermart-IN", "area_s": "Malad", "pincode_s": "400097"}
{"City": "Mumbai", "city_s": "Mumbai", "zip": "400097", "Area": "Malad", "url": "https://www.flipkart.com/search?q=B Natural&marketplace=GROCERY###zipcode:400097", "source": "FlipkartSupermart-IN", "area_s": "Malad", "pincode_s": "400097"}
{"City": "Mumbai", "city_s": "Mumbai", "zip": "400097", "Area": "Malad", "url": "https://www.flipkart.com/search?q=Bingo&marketplace=GROCERY###zipcode:400097", "source": "FlipkartSupermart-IN", "area_s": "Malad", "pincode_s": "400097"}
{"City": "Mumbai", "city_s": "Mumbai", "zip": "400097", "Area": "Malad", "url": "https://www.flipkart.com/search?q=Britannia&marketplace=GROCERY###zipcode:400097", "source": "FlipkartSupermart-IN", "area_s": "Malad", "pincode_s": "400097"}
{"City": "Mumbai", "city_s": "Mumbai", "zip": "400097", "Area": "Malad", "url": "https://www.flipkart.com/search?q=Cadbury&marketplace=GROCERY###zipcode:400097", "source": "FlipkartSupermart-IN", "area_s": "Malad", "pincode_s": "400097"}
{"City": "Mumbai", "city_s": "Mumbai", "zip": "400097", "Area": "Malad", "url": "https://www.flipkart.com/search?q=Cadbury Bournvita&marketplace=GROCERY###zipcode:400097", "source": "FlipkartSupermart-IN", "area_s": "Malad", "pincode_s": "400097"}
{"City": "Mumbai", "city_s": "Mumbai", "zip": "400097", "Area": "Malad", "url": "https://www.flipkart.com/search?q=Ching's Secret&marketplace=GROCERY###zipcode:400097", "source": "FlipkartSupermart-IN", "area_s": "Malad", "pincode_s": "400097"}
{"City": "Mumbai", "city_s": "Mumbai", "zip": "400097", "Area": "Malad", "url": "https://www.flipkart.com/search?q=Everest&marketplace=GROCERY###zipcode:400097", "source": "FlipkartSupermart-IN", "area_s": "Malad", "pincode_s": "400097"}
{"City": "Mumbai", "city_s": "Mumbai", "zip": "400097", "Area": "Malad", "url": "https://www.flipkart.com/search?q=Fortune&marketplace=GROCERY###zipcode:400097", "source": "FlipkartSupermart-IN", "area_s": "Malad", "pincode_s": "400097"}
{"City": "Mumbai", "city_s": "Mumbai", "zip": "400097", "Area": "Malad", "url": "https://www.flipkart.com/search?q=Haldiram&marketplace=GROCERY###zipcode:400097", "source": "FlipkartSupermart-IN", "area_s": "Malad", "pincode_s": "400097"}
{"City": "Mumbai", "city_s": "Mumbai", "zip": "400097", "Area": "Malad", "url": "https://www.flipkart.com/search?q=Haldiram's&marketplace=GROCERY###zipcode:400097", "source": "FlipkartSupermart-IN", "area_s": "Malad", "pincode_s": "400097"}
{"City": "Mumbai", "city_s": "Mumbai", "zip": "400097", "Area": "Malad", "url": "https://www.flipkart.com/search?q=Kitchens of India&marketplace=GROCERY###zipcode:400097", "source": "FlipkartSupermart-IN", "area_s": "Malad", "pincode_s": "400097"}
{"City": "Mumbai", "city_s": "Mumbai", "zip": "400097", "Area": "Malad", "url": "https://www.flipkart.com/search?q=Knorr&marketplace=GROCERY###zipcode:400097", "source": "FlipkartSupermart-IN", "area_s": "Malad", "pincode_s": "400097"}
{"City": "Mumbai", "city_s": "Mumbai", "zip": "400097", "Area": "Malad", "url": "https://www.flipkart.com/search?q=Kurkure&marketplace=GROCERY###zipcode:400097", "source": "FlipkartSupermart-IN", "area_s": "Malad", "pincode_s": "400097"}
{"City": "Mumbai", "city_s": "Mumbai", "zip": "400097", "Area": "Malad", "url": "https://www.flipkart.com/search?q=Lay's&marketplace=GROCERY###zipcode:400097", "source": "FlipkartSupermart-IN", "area_s": "Malad", "pincode_s": "400097"}
{"City": "Mumbai", "city_s": "Mumbai", "zip": "400097", "Area": "Malad", "url": "https://www.flipkart.com/search?q=Lotte&marketplace=GROCERY###zipcode:400097", "source": "FlipkartSupermart-IN", "area_s": "Malad", "pincode_s": "400097"}
{"City": "Mumbai", "city_s": "Mumbai", "zip": "400097", "Area": "Malad", "url": "https://www.flipkart.com/search?q=Maggi&marketplace=GROCERY###zipcode:400097", "source": "FlipkartSupermart-IN", "area_s": "Malad", "pincode_s": "400097"}
{"City": "Mumbai", "city_s": "Mumbai", "zip": "400097", "Area": "Malad", "url": "https://www.flipkart.com/search?q=Maggi chicken&marketplace=GROCERY###zipcode:400097", "source": "FlipkartSupermart-IN", "area_s": "Malad", "pincode_s": "400097"}
{"City": "Mumbai", "city_s": "Mumbai", "zip": "400097", "Area": "Malad", "url": "https://www.flipkart.com/search?q=McVitie's&marketplace=GROCERY###zipcode:400097", "source": "FlipkartSupermart-IN", "area_s": "Malad", "pincode_s": "400097"}
{"City": "Mumbai", "city_s": "Mumbai", "zip": "400097", "Area": "Malad", "url": "https://www.flipkart.com/search?q=McVities&marketplace=GROCERY###zipcode:400097", "source": "FlipkartSupermart-IN", "area_s": "Malad", "pincode_s": "400097"}
{"City": "Mumbai", "city_s": "Mumbai", "zip": "400097", "Area": "Malad", "url": "https://www.flipkart.com/search?q=MTR&marketplace=GROCERY###zipcode:400097", "source": "FlipkartSupermart-IN", "area_s": "Malad", "pincode_s": "400097"}
{"City": "Mumbai", "city_s": "Mumbai", "zip": "400097", "Area": "Malad", "url": "https://www.flipkart.com/search?q=Oreo&marketplace=GROCERY###zipcode:400097", "source": "FlipkartSupermart-IN", "area_s": "Malad", "pincode_s": "400097"}
{"City": "Mumbai", "city_s": "Mumbai", "zip": "400097", "Area": "Malad", "url": "https://www.flipkart.com/search?q=Paper Boat&marketplace=GROCERY###zipcode:400097", "source": "FlipkartSupermart-IN", "area_s": "Malad", "pincode_s": "400097"}
{"City": "Mumbai", "city_s": "Mumbai", "zip": "400097", "Area": "Malad", "url": "https://www.flipkart.com/search?q=Parle&marketplace=GROCERY###zipcode:400097", "source": "FlipkartSupermart-IN", "area_s": "Malad", "pincode_s": "400097"}
{"City": "Mumbai", "city_s": "Mumbai", "zip": "400097", "Area": "Malad", "url": "https://www.flipkart.com/search?q=Patanjali&marketplace=GROCERY###zipcode:400097", "source": "FlipkartSupermart-IN", "area_s": "Malad", "pincode_s": "400097"}
{"City": "Mumbai", "city_s": "Mumbai", "zip": "400097", "Area": "Malad", "url": "https://www.flipkart.com/search?q=Pillsbury&marketplace=GROCERY###zipcode:400097", "source": "FlipkartSupermart-IN", "area_s": "Malad", "pincode_s": "400097"}
{"City": "Mumbai", "city_s": "Mumbai", "zip": "400097", "Area": "Malad", "url": "https://www.flipkart.com/search?q=Real&marketplace=GROCERY###zipcode:400097", "source": "FlipkartSupermart-IN", "area_s": "Malad", "pincode_s": "400097"}
{"City": "Mumbai", "city_s": "Mumbai", "zip": "400097", "Area": "Malad", "url": "https://www.flipkart.com/search?q=Real B&marketplace=GROCERY###zipcode:400097", "source": "FlipkartSupermart-IN", "area_s": "Malad", "pincode_s": "400097"}
{"City": "Mumbai", "city_s": "Mumbai", "zip": "400097", "Area": "Malad", "url": "https://www.flipkart.com/search?q=Real Basmati&marketplace=GROCERY###zipcode:400097", "source": "FlipkartSupermart-IN", "area_s": "Malad", "pincode_s": "400097"}
{"City": "Mumbai", "city_s": "Mumbai", "zip": "400097", "Area": "Malad", "url": "https://www.flipkart.com/search?q=Samrat&marketplace=GROCERY###zipcode:400097", "source": "FlipkartSupermart-IN", "area_s": "Malad", "pincode_s": "400097"}
{"City": "Mumbai", "city_s": "Mumbai", "zip": "400097", "Area": "Malad", "url": "https://www.flipkart.com/search?q=Sunfeast&marketplace=GROCERY###zipcode:400097", "source": "FlipkartSupermart-IN", "area_s": "Malad", "pincode_s": "400097"}
{"City": "Mumbai", "city_s": "Mumbai", "zip": "400097", "Area": "Malad", "url": "https://www.flipkart.com/search?q=Top Ramen&marketplace=GROCERY###zipcode:400097", "source": "FlipkartSupermart-IN", "area_s": "Malad", "pincode_s": "400097"}
{"City": "Mumbai", "city_s": "Mumbai", "zip": "400097", "Area": "Malad", "url": "https://www.flipkart.com/search?q=Tropicana&marketplace=GROCERY###zipcode:400097", "source": "FlipkartSupermart-IN", "area_s": "Malad", "pincode_s": "400097"}
{"City": "Mumbai", "city_s": "Mumbai", "zip": "400097", "Area": "Malad", "url": "https://www.flipkart.com/search?q=Unibic&marketplace=GROCERY###zipcode:400097", "source": "FlipkartSupermart-IN", "area_s": "Malad", "pincode_s": "400097"}
{"City": "Mumbai", "city_s": "Mumbai", "zip": "400097", "Area": "Malad", "url": "https://www.flipkart.com/search?q=Yippee&marketplace=GROCERY###zipcode:400097", "source": "FlipkartSupermart-IN", "area_s": "Malad", "pincode_s": "400097"}
